Normalized Turnout for Pottawatomie County, KS in General Election 2016-11-08
…
$ElectionDate
[1] "2016-11-08 UTC"

$ElectionName
[1] "General"

$AfterFileDate
[1] "2017-02-13 UTC"

$PrecinctMinimum
[1] 25

$voterMaster
# A tibble: 1,794,928 x 20
   ID14         SOSKey Status BirthDate  RegisterDate Gender County City   Party
   <chr>         <dbl> <chr>  <date>     <date>       <chr>  <chr>  <chr>  <chr>
 1 ALFFC0813B~ 4476835 I      1979-03-17 1998-02-03   Female Allen  Iola   U    
 2 AL038EF3B3~ 4482236 A      1948-07-09 1984-01-18   Male   Allen  Iola   D    
 3 ALB787B84C~ 4479777 A      1938-05-14 2003-07-16   Male   Allen  Iola   R    
 4 AL5B6D1A72~ 4472179 A      1950-09-27 1984-07-17   Female Allen  Iola   R    
 5 AL1EF09FED~ 4481177 A      1941-05-24 2003-07-16   Female Allen  Iola   R    
 6 ALA008B281~ 4479571 A      1958-04-10 2004-04-09   Female Allen  Chanu~ U    
 7 ALF2585233~ 4508784 A      1982-01-06 2015-03-09   Male   Allen  Humbo~ U    
 8 AL4BC0A7AA~ 5792061 A      1998-11-12 2016-03-21   Male   Allen  Humbo~ D    
 9 AL12C597ED~ 5298896 A      1984-07-14 2009-02-06   Female Allen  Iola   U    
10 AL28AD750A~ 4383859 I      1984-09-09 2008-02-26   Female Allen  Iola   U    
# ... with 1,794,918 more rows, and 11 more variables: LastVoteYear <dbl>,
#   TotalVotes <dbl>, August <dbl>, AugPattern <chr>, November <dbl>,
#   NovPattern <chr>, Precinct <chr>, Age <dbl>, Registered <dbl>,
#   RegisteredTooLate <int>, VotedInElection <int>
…
