Normalized Turnout for Pottawatomie County, KS in General Election 2020-11-03
…
$ElectionDate
[1] "2020-11-03 UTC"

$ElectionName
[1] "General"

$AfterFileDate
[1] "2021-02-05 UTC"

$PrecinctMinimum
[1] 25

$voterMaster
# A tibble: 1,919,257 x 20
   ID14         SOSKey Status BirthDate  RegisterDate Gender County City   Party
   <chr>         <dbl> <chr>  <date>     <date>       <chr>  <chr>  <chr>  <chr>
 1 AL038EF3B3~ 4482236 A      1948-07-09 1984-01-18   Male   Allen  Iola   D    
 2 ALB787B84C~ 4479777 A      1938-05-14 2003-07-16   Male   Allen  Iola   R    
 3 AL5B6D1A72~ 4472179 A      1950-09-27 1984-07-17   Female Allen  Iola   R    
 4 AL1EF09FED~ 4481177 A      1941-05-24 2003-07-16   Female Allen  Iola   R    
 5 ALE3E38B83~ 6173290 A      2001-06-11 2020-09-28   Female Allen  Iola   L    
 6 ALA008B281~ 4479571 A      1958-04-10 2004-04-09   Female Allen  Chanu~ U    
 7 ALF2585233~ 4508784 I      1982-01-06 2015-03-09   Male   Allen  Humbo~ U    
 8 ALDB84B914~ 4477366 A      1948-07-15 2000-11-30   Male   Allen  La Ha~ R    
 9 AL1EC89AAF~ 4477491 A      1955-10-30 2000-12-07   Female Allen  La Ha~ R    
10 AL64D1DC5B~ 2470791 A      1985-04-14 2007-05-18   Female Allen  Iola   U    
# ... with 1,919,247 more rows, and 11 more variables: LastVoteYear <dbl>,
#   TotalVotes <dbl>, August <dbl>, AugPattern <chr>, November <dbl>,
#   NovPattern <chr>, Precinct <chr>, Age <dbl>, Registered <dbl>,
#   RegisteredTooLate <int>, VotedInElection <int>
…
